household_num,pv_name,timezone,annual_generated,annual_consumption,cov_system,cov_pv,cov_battery,annual_savings,max_power,max_consumption,battery_rep_num,battery_costs,pv_costs,inverter_costs,controller_costs,pv_install,system_install,battery_install,controller_install,total_savings,total_costs,net_savings,pay_back
0,Yingli Solar YL230-29b Module [ 2009],America/Chicago,5184.041,11676.124,3723.231,2729.582,993.649,378.28,2.111,7.984,2.0,1700.0,1372.15,650,219,477,612.19,60.0,10,7591.5802704,5100.34,2491.24,True
1,Yingli Solar YL230-29b Module [ 2009],America/Chicago,5184.041,9442.842,3413.919,2460.226,953.694,346.85,2.111,6.975,2.0,1700.0,1372.15,650,219,477,612.19,60.0,10,6960.821658000001,5100.34,1860.48,True
2,Suniva OPT300-72-4-100 [2013],America/Chicago,6260.283,10958.05,4164.084,3326.707,837.377,423.07,2.53,7.413,2.0,1700.0,1644.4999999999998,1090,219,477,733.6999999999999,60.0,10,8490.4564476,5934.2,2556.26,True
3,Yingli Solar YL230-29b Module [ 2009],America/Chicago,5184.041,7751.576,3616.997,2862.329,754.668,367.49,2.111,6.721,2.0,1700.0,1372.15,650,219,477,612.19,60.0,10,7375.039213200001,5100.34,2274.7,True
4,Silevo Triex U300 Black [2014],America/Chicago,6590.415,19710.619,5715.783,5144.583,571.2,580.72,2.725,9.65,2.0,1700.0,1771.2500000000002,1090,219,477,790.25,60.0,10,11654.2838496,6117.5,5536.78,True
5,Suniva OPT300-72-4-100 [2013],America/Chicago,6260.283,13651.501,5149.975,4356.023,793.952,523.24,2.53,8.212,2.0,1700.0,1644.4999999999998,1090,219,477,733.6999999999999,60.0,10,10500.7361232,5934.2,4566.54,True
6,Suniva OPT300-72-4-100 [2013],America/Chicago,6260.283,13327.509,5250.792,4524.043,726.749,533.48,2.53,8.11,2.0,1700.0,1644.4999999999998,1090,219,477,733.6999999999999,60.0,10,10706.2394064,5934.2,4772.04,True
7,Canadian Solar CS6X-300M [2013],America/Chicago,6387.899,7469.213,4475.42,3613.82,861.599,454.7,2.569,6.115,2.0,1700.0,1669.8500000000001,1090,219,477,745.01,60.0,10,9125.228796,5970.86,3154.37,True
8,Yingli Solar YL230-29b Module [ 2009],America/Chicago,5184.041,6420.92,3310.862,2339.15,971.712,336.38,2.111,9.327,2.0,1700.0,1372.15,650,219,477,612.19,60.0,10,6750.7025784,5100.34,1650.36,True
9,Yingli Solar YL230-29b Module [ 2009],America/Chicago,5184.041,12102.032,3998.758,3219.637,779.122,406.27,2.111,7.96,2.0,1700.0,1372.15,650,219,477,612.19,60.0,10,8153.3026236,5100.34,3052.96,True
10,Yingli Solar YL230-29b Module [ 2009],America/Chicago,5184.041,9543.816,3071.66,2122.587,949.074,312.08,2.111,5.126,2.0,1700.0,1372.15,650,219,477,612.19,60.0,10,6263.0336544,5100.34,1162.69,True
11,Suniva OPT300-72-4-100 [2013],America/Chicago,6260.283,9169.317,4646.496,3914.119,732.376,472.08,2.53,6.217,2.0,1700.0,1644.4999999999998,1090,219,477,733.6999999999999,60.0,10,9474.0224544,5934.2,3539.82,True
12,Advent Solar AS160 [ 2006],America/Chicago,3703.499,5282.052,2409.803,1511.061,898.742,244.84,1.478,4.347,2.0,1700.0,1170.0000000000002,520,219,477,522.0,60.0,10,4913.6156112,4678.0,235.62,True
13,SolarWorld Sunmodule 250 Poly [2013],America/Chicago,4888.292,7021.585,3629.555,2615.088,1014.468,368.76,1.987,7.111,2.0,1700.0,1291.5500000000002,590,219,477,576.23,60.0,10,7400.5264368,4923.78,2476.75,True
14,Yingli Solar YL230-29b Module [ 2009],America/Chicago,5184.041,7512.293,3372.658,2595.883,776.776,342.66,2.111,5.547,2.0,1700.0,1372.15,650,219,477,612.19,60.0,10,6876.7338888,5100.34,1776.39,True
15,Yingli Solar YL230-29b Module [ 2009],America/Chicago,5184.041,12722.194,4464.197,3695.645,768.552,453.56,2.111,5.818,2.0,1700.0,1372.15,650,219,477,612.19,60.0,10,9102.350500800001,5100.34,4002.01,True
16,Yingli Solar YL230-29b Module [ 2009],America/Chicago,5184.041,11539.432,3771.166,2893.581,877.585,383.15,2.111,8.018,2.0,1700.0,1372.15,650,219,477,612.19,60.0,10,7689.314742,5100.34,2588.97,True
17,Silevo Triex U300 Black [2014],America/Chicago,6590.415,15665.292,4329.959,4077.729,252.23,439.92,2.725,11.804,2.0,1700.0,1771.2500000000002,1090,219,477,790.25,60.0,10,8828.6137056,6117.5,2711.11,True
18,Suniva OPT300-72-4-100 [2013],America/Chicago,6260.283,9748.436,4490.04,3618.488,871.552,456.19,2.53,5.965,2.0,1700.0,1644.4999999999998,1090,219,477,733.6999999999999,60.0,10,9155.131129200001,5934.2,3220.93,True
19,Suniva OPT300-72-4-100 [2013],America/Chicago,6260.283,20167.673,5410.798,4645.076,765.722,549.74,2.53,12.623,2.0,1700.0,1644.4999999999998,1090,219,477,733.6999999999999,60.0,10,11032.556143200001,5934.2,5098.36,True
20,Suniva OPT300-72-4-100 [2013],America/Chicago,6260.283,13972.129,4599.234,3729.861,869.373,467.28,2.53,9.315,2.0,1700.0,1644.4999999999998,1090,219,477,733.6999999999999,60.0,10,9377.6927904,5934.2,3443.49,True
21,Yingli Solar YL230-29b Module [ 2009],America/Chicago,5184.041,4352.016,2528.473,1561.961,966.512,256.89,2.111,4.68,2.0,1700.0,1372.15,650,219,477,612.19,60.0,10,5155.4432052,5100.34,55.1,True
22,Yingli Solar YL230-29b Module [ 2009],America/Chicago,5184.041,11061.538,3885.22,3024.728,860.492,394.74,2.111,7.619,2.0,1700.0,1372.15,650,219,477,612.19,60.0,10,7921.9107432,5100.34,2821.57,True
23,Yingli Solar YL230-29b Module [ 2009],America/Chicago,5184.041,7025.62,3206.44,2302.25,904.19,325.77,2.111,5.848,2.0,1700.0,1372.15,650,219,477,612.19,60.0,10,6537.7738836,5100.34,1437.43,True
24,Yingli Solar YL230-29b Module [ 2009],America/Chicago,5184.041,8622.355,4006.309,3111.963,894.346,407.04,2.111,6.006,2.0,1700.0,1372.15,650,219,477,612.19,60.0,10,8168.7555072000005,5100.34,3068.42,True
25,Yingli Solar YL230-29b Module [ 2009],America/Chicago,5184.041,8033.124,3186.526,2242.42,944.106,323.75,2.111,7.467,2.0,1700.0,1372.15,650,219,477,612.19,60.0,10,6497.23515,5100.34,1396.9,True
26,Yingli Solar YL230-29b Module [ 2009],America/Chicago,5184.041,11804.842,4198.617,3292.472,906.145,426.58,2.111,5.854,2.0,1700.0,1372.15,650,219,477,612.19,60.0,10,8560.8975144,5100.34,3460.56,True
27,SolFocus SF-1100S-CPV-28 (330) [ 2010],America/Chicago,7829.302,12282.453,5473.816,4612.245,861.571,556.14,3.36,8.079,2.0,1700.0,2184.0,1090,219,477,974.4,60.0,10,11160.9956952,6714.4,4446.6,True
28,Suniva OPT300-72-4-100 [2013],America/Chicago,6260.283,10032.201,4091.983,3152.352,939.631,415.75,2.53,9.086,2.0,1700.0,1644.4999999999998,1090,219,477,733.6999999999999,60.0,10,8343.55371,5934.2,2409.35,True
29,Yingli Solar YL230-29b Module [ 2009],America/Chicago,5184.041,7282.41,3063.791,2137.417,926.374,311.28,2.111,6.795,2.0,1700.0,1372.15,650,219,477,612.19,60.0,10,6246.9787104,5100.34,1146.64,True
30,Suniva OPT300-72-4-100 [2013],America/Chicago,6260.283,13809.048,4869.9,4079.755,790.145,494.78,2.53,12.315,2.0,1700.0,1644.4999999999998,1090,219,477,733.6999999999999,60.0,10,9929.5814904,5934.2,3995.38,True
31,Suniva OPT300-72-4-100 [2013],America/Chicago,6260.283,8497.48,4206.704,3422.101,784.603,427.4,2.53,5.83,2.0,1700.0,1644.4999999999998,1090,219,477,733.6999999999999,60.0,10,8577.353831999999,5934.2,2643.15,True
32,Yingli Solar YL230-29b Module [ 2009],America/Chicago,5184.041,13480.111,4160.342,3312.464,847.878,422.69,2.111,11.207,2.0,1700.0,1372.15,650,219,477,612.19,60.0,10,8482.8303492,5100.34,3382.49,True
33,Ligitek LM220 BB00 [ 2009],America/Chicago,4929.57,5813.062,3209.979,2319.792,890.187,326.13,1.986,4.708,2.0,1700.0,1290.8999999999999,590,219,477,575.94,60.0,10,6544.9986084,4922.84,1622.16,True
34,Yingli Solar YL230-29b Module [ 2009],America/Chicago,5184.041,9452.275,3391.434,2667.318,724.116,344.57,2.111,9.201,2.0,1700.0,1372.15,650,219,477,612.19,60.0,10,6915.0650676000005,5100.34,1814.73,True
35,SolFocus SF-1100S-CPV-28 (330) [ 2010],America/Chicago,7829.302,10086.219,5152.151,4254.316,897.836,523.46,3.36,6.994,2.0,1700.0,2184.0,1090,219,477,974.4,60.0,10,10505.1512328,6714.4,3790.75,True
36,Yingli Solar YL230-29b Module [ 2009],America/Chicago,5184.041,7169.544,3262.208,2519.764,742.443,331.44,2.111,4.757,2.0,1700.0,1372.15,650,219,477,612.19,60.0,10,6651.5632992,5100.34,1551.22,True
37,Yingli Solar YL230-29b Module [ 2009],America/Chicago,5184.041,16421.381,4322.147,3433.632,888.515,439.13,2.111,8.13,2.0,1700.0,1372.15,650,219,477,612.19,60.0,10,8812.7594484,5100.34,3712.42,True
38,Yingli Solar YL230-29b Module [ 2009],America/Chicago,5184.041,6938.693,3453.12,2506.364,946.756,350.84,2.111,5.811,2.0,1700.0,1372.15,650,219,477,612.19,60.0,10,7040.895691199999,5100.34,1940.56,True
39,Yingli Solar YL230-29b Module [ 2009],America/Chicago,5184.041,10840.342,4140.545,3296.355,844.19,420.68,2.111,14.654,2.0,1700.0,1372.15,650,219,477,612.19,60.0,10,8442.4923024,5100.34,3342.15,True
40,Suniva OPT300-72-4-100 [2013],America/Chicago,6260.283,16536.406,4905.468,4184.555,720.914,498.4,2.53,9.313,2.0,1700.0,1644.4999999999998,1090,219,477,733.6999999999999,60.0,10,10002.230112,5934.2,4068.03,True
41,Yingli Solar YL230-29b Module [ 2009],America/Chicago,5184.041,6909.328,3710.771,2934.682,776.089,377.01,2.111,4.811,2.0,1700.0,1372.15,650,219,477,612.19,60.0,10,7566.0930468,5100.34,2465.75,True
42,Yingli Solar YL230-29b Module [ 2009],America/Chicago,5184.041,6055.315,2990.622,2013.68,976.942,303.85,2.111,6.895,2.0,1700.0,1372.15,650,219,477,612.19,60.0,10,6097.868418000001,5100.34,997.53,True
43,Yingli Solar YL230-29b Module [ 2009],America/Chicago,5184.041,8018.856,3585.366,2799.639,785.727,364.27,2.111,6.137,2.0,1700.0,1372.15,650,219,477,612.19,60.0,10,7310.4180636,5100.34,2210.08,True
44,Yingli Solar YL230-29b Module [ 2009],America/Chicago,5184.041,14828.28,4162.512,3310.909,851.604,422.91,2.111,7.888,2.0,1700.0,1372.15,650,219,477,612.19,60.0,10,8487.2454588,5100.34,3386.91,True
45,Yingli Solar YL230-29b Module [ 2009],America/Chicago,5184.041,10677.336,3767.147,2920.706,846.441,382.74,2.111,7.519,2.0,1700.0,1372.15,650,219,477,612.19,60.0,10,7681.0865832,5100.34,2580.75,True
46,Yingli Solar YL230-29b Module [ 2009],America/Chicago,5184.041,8895.154,3592.115,2706.149,885.965,364.96,2.111,8.131,2.0,1700.0,1372.15,650,219,477,612.19,60.0,10,7324.265452799999,5100.34,2223.93,True
47,Suniva OPT300-72-4-100 [2013],America/Chicago,6260.283,20475.953,5746.123,5249.378,496.744,583.81,2.53,10.494,2.0,1700.0,1644.4999999999998,1090,219,477,733.6999999999999,60.0,10,11716.2960708,5934.2,5782.1,True
48,BP Solar BP3220N Module [ 2010],America/Chicago,4930.432,5903.02,2957.62,1977.777,979.843,300.49,1.982,5.196,2.0,1700.0,1288.3,590,219,477,574.78,60.0,10,6030.437653200001,4919.08,1111.36,True
49,Suniva OPT300-72-4-100 [2013],America/Chicago,6260.283,12082.727,4542.771,3760.074,782.696,461.55,2.53,7.671,2.0,1700.0,1644.4999999999998,1090,219,477,733.6999999999999,60.0,10,9262.699254000001,5934.2,3328.5,True
50,Yingli Solar YL230-29b Module [ 2009],America/Chicago,5184.041,7094.321,2998.734,2456.017,542.717,304.67,2.111,7.068,2.0,1700.0,1372.15,650,219,477,612.19,60.0,10,6114.3247356,5100.34,1013.98,True
51,Silevo Triex U300 Black [2014],America/Chicago,6590.415,12915.356,5131.529,4331.171,800.358,521.36,2.725,7.901,2.0,1700.0,1771.2500000000002,1090,219,477,790.25,60.0,10,10463.0070048,6117.5,4345.51,True
52,Suniva OPT300-72-4-100 [2013],America/Chicago,6260.283,6232.36,3482.41,2532.828,949.582,353.81,2.53,4.44,2.0,1700.0,1644.4999999999998,1090,219,477,733.6999999999999,60.0,10,7100.4996708,5934.2,1166.3,True
53,Suniva OPT300-72-4-100 [2013],America/Chicago,6260.283,14231.355,5112.896,4310.724,802.171,519.47,2.53,10.041,2.0,1700.0,1644.4999999999998,1090,219,477,733.6999999999999,60.0,10,10425.0771996,5934.2,4490.88,True
54,Silevo Triex U300 Black [2014],America/Chicago,6590.415,10634.013,4764.976,3959.215,805.762,484.12,2.725,7.668,2.0,1700.0,1771.2500000000002,1090,219,477,790.25,60.0,10,9715.6493616,6117.5,3598.15,True
55,Silevo Triex U300 Black [2014],America/Chicago,6590.415,18431.918,5375.518,4798.596,576.922,546.15,2.725,9.506,2.0,1700.0,1771.2500000000002,1090,219,477,790.25,60.0,10,10960.509582,6117.5,4843.01,True
56,Suniva OPT300-72-4-100 [2013],America/Chicago,6260.283,13837.279,4695.686,3853.156,842.531,477.08,2.53,11.202,2.0,1700.0,1644.4999999999998,1090,219,477,733.6999999999999,60.0,10,9574.365854399999,5934.2,3640.17,True
57,Suniva OPT300-72-4-100 [2013],America/Chicago,6260.283,11937.329,4819.895,4129.33,690.565,489.7,2.53,7.331,2.0,1700.0,1644.4999999999998,1090,219,477,733.6999999999999,60.0,10,9827.632596,5934.2,3893.43,True
58,Silevo Triex U300 Black [2014],America/Chicago,6590.415,23546.072,6282.773,5753.032,529.741,638.33,2.725,11.211,2.0,1700.0,1771.2500000000002,1090,219,477,790.25,60.0,10,12810.440504400001,6117.5,6692.94,True
59,Yingli Solar YL230-29b Module [ 2009],America/Chicago,5184.041,6615.803,3181.543,2237.323,944.22,323.24,2.111,5.816,2.0,1700.0,1372.15,650,219,477,612.19,60.0,10,6487.0001232,5100.34,1386.66,True
60,Advent Solar Ventura 210 [ 2008],America/Chicago,4533.525,6602.203,2981.052,2044.176,936.876,302.87,1.892,4.004,2.0,1700.0,1229.8,590,219,477,548.68,60.0,10,6078.2011116,4834.48,1243.72,True
61,Silevo Triex U300 Black [2014],America/Chicago,6590.415,14574.657,5389.161,4712.758,676.403,547.54,2.725,7.092,2.0,1700.0,1771.2500000000002,1090,219,477,790.25,60.0,10,10988.4050472,6117.5,4870.91,True
62,Yingli Solar YL230-29b Module [ 2009],America/Chicago,5184.041,8475.86,3668.0,2820.318,847.682,372.67,2.111,5.342,2.0,1700.0,1372.15,650,219,477,612.19,60.0,10,7478.9949756000005,5100.34,2378.65,True
63,Silevo Triex U300 Black [2014],America/Chicago,6590.415,32332.912,6513.45,6255.157,258.293,661.77,2.725,11.803,2.0,1700.0,1771.2500000000002,1090,219,477,790.25,60.0,10,13280.8503636,6117.5,7163.35,True
64,Suniva OPT300-72-4-100 [2013],America/Chicago,6260.283,12964.953,5472.315,4763.563,708.752,555.99,2.53,6.717,2.0,1700.0,1644.4999999999998,1090,219,477,733.6999999999999,60.0,10,11157.9853932,5934.2,5223.79,True
65,Advent Solar Ventura 210 [ 2008],America/Chicago,4533.525,848.211,351.605,236.262,115.342,35.72,1.892,8.729,2.0,1700.0,1229.8,590,219,477,548.68,60.0,10,716.8532496,4834.48,-4117.63,False
66,SolarWorld Sunmodule 250 Poly [2013],America/Chicago,4888.292,6303.423,3505.626,2736.28,769.347,356.17,1.987,4.154,2.0,1700.0,1291.5500000000002,590,219,477,576.23,60.0,10,7147.861755600001,4923.78,2224.08,True
67,Suniva OPT300-72-4-100 [2013],America/Chicago,6260.283,6525.536,2999.552,2048.326,951.226,304.75,2.53,4.886,2.0,1700.0,1644.4999999999998,1090,219,477,733.6999999999999,60.0,10,6115.93023,5934.2,181.73,True
68,Yingli Solar YL230-29b Module [ 2009],America/Chicago,5184.041,12079.544,3504.686,2534.623,970.063,356.08,2.111,8.625,2.0,1700.0,1372.15,650,219,477,612.19,60.0,10,7146.0555744,5100.34,2045.72,True
69,Suniva OPT300-72-4-100 [2013],America/Chicago,6260.283,8802.051,4569.579,3742.093,827.486,464.27,2.53,5.297,2.0,1700.0,1644.4999999999998,1090,219,477,733.6999999999999,60.0,10,9317.2860636,5934.2,3383.09,True
70,Suniva OPT300-72-4-100 [2013],America/Chicago,6260.283,9493.862,3983.22,3122.797,860.424,404.7,2.53,6.021,2.0,1700.0,1644.4999999999998,1090,219,477,733.6999999999999,60.0,10,8121.794796,5934.2,2187.59,True
71,Yingli Solar YL230-29b Module [ 2009],America/Chicago,5184.041,7723.98,3910.345,3163.496,746.849,397.29,2.111,2.895,2.0,1700.0,1372.15,650,219,477,612.19,60.0,10,7973.085877200001,5100.34,2872.75,True
72,SolFocus SF-1100S-CPV-28 (330) [ 2010],America/Chicago,7829.302,14216.362,5784.876,4944.54,840.336,587.74,3.36,8.605,2.0,1700.0,2184.0,1090,219,477,974.4,60.0,10,11795.1659832,6714.4,5080.77,True
73,Suniva OPT300-72-4-100 [2013],America/Chicago,6260.283,12888.098,5204.658,4535.39,669.268,528.79,2.53,7.083,2.0,1700.0,1644.4999999999998,1090,219,477,733.6999999999999,60.0,10,10612.1172972,5934.2,4677.92,True
74,Suniva OPT300-72-4-100 [2013],America/Chicago,6260.283,13610.022,4436.257,3449.211,987.045,450.72,2.53,16.089,2.0,1700.0,1644.4999999999998,1090,219,477,733.6999999999999,60.0,10,9045.355449600002,5934.2,3111.16,True
75,Suniva OPT300-72-4-100 [2013],America/Chicago,6260.283,12604.489,4600.673,3733.377,867.296,467.43,2.53,10.583,2.0,1700.0,1644.4999999999998,1090,219,477,733.6999999999999,60.0,10,9380.703092400001,5934.2,3446.5,True
76,Suniva OPT300-72-4-100 [2013],America/Chicago,6260.283,11790.926,4558.104,3697.507,860.597,463.1,2.53,7.821,2.0,1700.0,1644.4999999999998,1090,219,477,733.6999999999999,60.0,10,9293.805708,5934.2,3359.61,True
77,SolFocus SF-1100S-CPV-28 (330) [ 2010],America/Chicago,7829.302,16918.618,5308.853,4450.158,858.694,539.38,3.36,10.985,2.0,1700.0,2184.0,1090,219,477,974.4,60.0,10,10824.6446184,6714.4,4110.24,True
78,Silevo Triex U300 Black [2014],America/Chicago,6590.415,11530.51,5016.744,4315.576,701.168,509.7,2.725,7.24,2.0,1700.0,1771.2500000000002,1090,219,477,790.25,60.0,10,10229.006196,6117.5,4111.51,True
79,Yingli Solar YL230-29b Module [ 2009],America/Chicago,5184.041,8279.205,3803.52,2928.776,874.744,386.44,2.111,5.305,2.0,1700.0,1372.15,650,219,477,612.19,60.0,10,7755.3406992,5100.34,2655.0,True
80,Yingli Solar YL230-29b Module [ 2009],America/Chicago,5184.041,8843.091,3524.514,2584.49,940.024,358.09,2.111,7.14,2.0,1700.0,1372.15,650,219,477,612.19,60.0,10,7186.3936212,5100.34,2086.05,True
81,Suniva OPT300-72-4-100 [2013],America/Chicago,6260.283,14856.871,4740.373,3832.018,908.355,481.62,2.53,10.275,2.0,1700.0,1644.4999999999998,1090,219,477,733.6999999999999,60.0,10,9665.4776616,5934.2,3731.28,True
82,Suniva OPT300-72-4-100 [2013],America/Chicago,6260.283,11250.378,4351.581,3374.226,977.355,442.12,2.53,10.549,2.0,1700.0,1644.4999999999998,1090,219,477,733.6999999999999,60.0,10,8872.7648016,5934.2,2938.56,True
83,Suniva OPT300-72-4-100 [2013],America/Chicago,6260.283,12511.131,4832.53,4017.319,815.211,490.99,2.53,6.419,2.0,1700.0,1644.4999999999998,1090,219,477,733.6999999999999,60.0,10,9853.5211932,5934.2,3919.32,True
84,SolFocus SF-1100S-CPV-28 (330) [ 2010],America/Chicago,7829.302,12790.593,4734.365,3927.995,806.369,481.01,3.36,15.668,2.0,1700.0,2184.0,1090,219,477,974.4,60.0,10,9653.2357668,6714.4,2938.84,True
85,LG LG290N1C-G3 [2013],America/Chicago,6513.589,9324.193,4440.01,3534.341,905.669,451.11,2.577,7.233,2.0,1700.0,1675.05,1090,219,477,747.3299999999999,60.0,10,9053.1822348,5978.38,3074.8,True
86,Yingli Solar YL230-29b Module [ 2009],America/Chicago,5184.041,4766.403,2887.384,1977.563,909.821,293.36,2.111,5.563,2.0,1700.0,1372.15,650,219,477,612.19,60.0,10,5887.3479648,5100.34,787.01,True
87,Silevo Triex U300 Black [2014],America/Chicago,6590.415,11479.261,5021.112,4221.118,799.993,510.14,2.725,6.167,2.0,1700.0,1771.2500000000002,1090,219,477,790.25,60.0,10,10237.8364152,6117.5,4120.34,True
88,Yingli Solar YL230-29b Module [ 2009],America/Chicago,5184.041,7313.367,3741.232,2944.526,796.706,380.11,2.111,3.306,2.0,1700.0,1372.15,650,219,477,612.19,60.0,10,7628.3059548,5100.34,2527.97,True
89,SolFocus SF-1100S-CPV-28 (330) [ 2010],America/Chicago,7829.302,13777.078,5947.848,5031.872,915.976,604.3,3.36,12.176,2.0,1700.0,2184.0,1090,219,477,974.4,60.0,10,12127.503324,6714.4,5413.1,True
90,Yingli Solar YL230-29b Module [ 2009],America/Chicago,5184.041,6779.707,2856.344,2453.521,402.823,290.2,2.111,4.897,2.0,1700.0,1372.15,650,219,477,612.19,60.0,10,5823.930936,5100.34,723.59,True
91,Yingli Solar YL230-29b Module [ 2009],America/Chicago,5184.041,11157.968,3826.146,2906.481,919.665,388.74,2.111,10.671,2.0,1700.0,1372.15,650,219,477,612.19,60.0,10,7801.4986632,5100.34,2701.16,True
92,Silevo Triex U300 Black [2014],America/Chicago,6590.415,14300.287,4973.869,4260.127,713.742,505.35,2.725,8.14,2.0,1700.0,1771.2500000000002,1090,219,477,790.25,60.0,10,10141.707438000001,6117.5,4024.21,True
93,Yingli Solar YL230-29b Module [ 2009],America/Chicago,5184.041,11807.964,3951.838,3121.542,830.297,401.51,2.111,10.146,2.0,1700.0,1372.15,650,219,477,612.19,60.0,10,8057.7757068,5100.34,2957.44,True
94,Yingli Solar YL230-29b Module [ 2009],America/Chicago,5184.041,10594.871,3951.991,3062.396,889.595,401.52,2.111,5.017,2.0,1700.0,1372.15,650,219,477,612.19,60.0,10,8057.9763936,5100.34,2957.64,True
95,Yingli Solar YL230-29b Module [ 2009],America/Chicago,5184.041,10662.246,4174.952,3318.197,856.754,424.18,2.111,5.443,2.0,1700.0,1372.15,650,219,477,612.19,60.0,10,8512.732682400001,5100.34,3412.39,True
96,Suniva OPT300-72-4-100 [2013],America/Chicago,6260.283,17057.524,5202.53,4541.421,661.109,528.58,2.53,7.638,2.0,1700.0,1644.4999999999998,1090,219,477,733.6999999999999,60.0,10,10607.9028744,5934.2,4673.7,True
97,Silevo Triex U300 Black [2014],America/Chicago,6590.415,33471.832,6551.349,6421.592,129.757,665.62,2.725,13.175,2.0,1700.0,1771.2500000000002,1090,219,477,790.25,60.0,10,13358.114781600001,6117.5,7240.61,True
98,Suniva OPT300-72-4-100 [2013],America/Chicago,6260.283,8491.87,4375.194,3523.673,851.521,444.52,2.53,8.492,2.0,1700.0,1644.4999999999998,1090,219,477,733.6999999999999,60.0,10,8920.9296336,5934.2,2986.73,True
99,Yingli Solar YL230-29b Module [ 2009],America/Chicago,5184.041,8245.077,4226.261,3437.264,788.998,429.39,2.111,5.12,2.0,1700.0,1372.15,650,219,477,612.19,60.0,10,8617.2905052,5100.34,3516.95,True
100,Suniva OPT300-72-4-100 [2013],America/Chicago,6260.283,15481.373,5251.657,4633.444,618.213,533.57,2.53,7.942,2.0,1700.0,1644.4999999999998,1090,219,477,733.6999999999999,60.0,10,10708.045587600001,5934.2,4773.85,True
101,SolarWorld Sunmodule 250 Poly [2013],America/Chicago,4888.292,8722.354,3186.465,2169.184,1017.281,323.74,1.987,13.364,2.0,1700.0,1291.5500000000002,590,219,477,576.23,60.0,10,6497.034463200001,4923.78,1573.25,True
102,Suntech STP200S-18-ub-1 Module [ 2009],America/Chicago,4466.131,4891.848,2641.628,1651.594,990.034,268.39,1.825,5.914,2.0,1700.0,1186.25,590,219,477,529.25,60.0,10,5386.2330252,4771.5,614.73,True
103,Yingli Solar YL230-29b Module [ 2009],America/Chicago,5184.041,9557.152,3525.894,2584.817,941.077,358.23,2.111,6.921,2.0,1700.0,1372.15,650,219,477,612.19,60.0,10,7189.203236400001,5100.34,2088.86,True
104,SolFocus SF-1100S-CPV-28 (330) [ 2010],America/Chicago,7829.302,12602.191,4849.608,4030.705,818.903,492.72,3.36,5.797,2.0,1700.0,2184.0,1090,219,477,974.4,60.0,10,9888.2400096,6714.4,3173.84,True
105,Yingli Solar YL230-29b Module [ 2009],America/Chicago,5184.041,2622.44,1234.961,986.625,248.336,125.47,2.111,4.073,2.0,1700.0,1372.15,650,219,477,612.19,60.0,10,2518.0172796,5100.34,-2582.32,False
106,Yingli Solar YL230-29b Module [ 2009],America/Chicago,5184.041,7514.463,3892.249,3037.623,854.626,395.45,2.111,4.841,2.0,1700.0,1372.15,650,219,477,612.19,60.0,10,7936.159506,5100.34,2835.82,True
107,Suniva OPT300-72-4-100 [2013],America/Chicago,6260.283,14003.437,5218.759,4456.117,762.642,530.23,2.53,8.341,2.0,1700.0,1644.4999999999998,1090,219,477,733.6999999999999,60.0,10,10641.0161964,5934.2,4706.82,True
108,Yingli Solar YL230-29b Module [ 2009],America/Chicago,5184.041,7103.004,3452.989,2670.38,782.609,350.82,2.111,4.626,2.0,1700.0,1372.15,650,219,477,612.19,60.0,10,7040.4943176,5100.34,1940.15,True
109,Silevo Triex U300 Black [2014],America/Chicago,6590.415,19642.401,4812.086,4411.248,400.838,488.91,2.725,10.047,2.0,1700.0,1771.2500000000002,1090,219,477,790.25,60.0,10,9811.7783388,6117.5,3694.28,True
110,SolFocus SF-1100S-CPV-28 (330) [ 2010],America/Chicago,7829.302,28228.887,6758.052,6209.791,548.262,686.62,3.36,16.9,2.0,1700.0,2184.0,1090,219,477,974.4,60.0,10,13779.5570616,6714.4,7065.16,True
111,Suniva OPT300-72-4-100 [2013],America/Chicago,6260.283,8795.611,3558.924,3040.304,518.62,361.59,2.53,10.28,2.0,1700.0,1644.4999999999998,1090,219,477,733.6999999999999,60.0,10,7256.6340012,5934.2,1322.43,True
112,Silevo Triex U300 Black [2014],America/Chicago,6590.415,19918.854,4911.313,4230.253,681.06,498.99,2.725,13.765,2.0,1700.0,1771.2500000000002,1090,219,477,790.25,60.0,10,10014.0706332,6117.5,3896.57,True
113,Suniva OPT300-72-4-100 [2013],America/Chicago,6260.283,10528.794,4577.987,3730.87,847.117,465.12,2.53,6.378,2.0,1700.0,1644.4999999999998,1090,219,477,733.6999999999999,60.0,10,9334.3444416,5934.2,3400.14,True
114,Yingli Solar YL230-29b Module [ 2009],America/Chicago,5184.041,6395.869,3373.122,2467.598,905.523,342.71,2.111,5.675,2.0,1700.0,1372.15,650,219,477,612.19,60.0,10,6877.7373228,5100.34,1777.4,True
